<?xml version="1.0" encoding="utf-8"?>
<!-- Generator: Adobe Illustrator 15.0.2, SVG Export Plug-In . SVG Version: 6.00 Build 0)  -->
<!DOCTYPE svg PUBLIC "-//W3C//DTD SVG 1.1//EN" "http://www.w3.org/Graphics/SVG/1.1/DTD/svg11.dtd">
<svg version="1.1" id="Layer_1" xmlns="http://www.w3.org/2000/svg" xmlns:xlink="http://www.w3.org/1999/xlink" x="0px" y="0px"
	 width="658.444px" height="280.94px" viewBox="0 0 658.444 280.94" enable-background="new 0 0 658.444 280.94"
	 xml:space="preserve">
<g>
	<path d="M109.392,112.685v6.941c-0.306,2.064-1.566,3.804-3.779,5.219c2.824,1.491,4.37,3.422,4.637,5.792v12.274H99.831v-11.032
		c0-1.302-0.515-2.375-1.545-3.217c-1.031-0.843-2.157-1.264-3.378-1.264H70.292v15.513H59.587v-40.129l10.705-2.233v22.326h23.413
		c1.336,0,2.499-0.419,3.492-1.259c0.992-0.839,1.489-1.908,1.489-3.206v-5.726H109.392L109.392,112.685z M164.46,112.17v37.783
		c-0.458,2.518-2.289,4.521-5.495,6.01c-2.634,1.221-5.21,1.832-7.728,1.832h-31.6l2.404-4.521h25.933
		c3.357,0,5.438-1.471,6.239-4.408v-5.896h-30.397c-4.771,0-7.671-1.469-8.702-4.408V112.17h10.305v23.242
		c0.229,1.413,1.468,2.232,3.721,2.462h25.073V112.17H164.46L164.46,112.17z M215.752,113.888c2.9,1.488,4.503,3.492,4.809,6.011
		v23.013h-38.126c-2.519,0-4.98-0.61-7.385-1.832c-2.976-1.525-4.599-3.549-4.866-6.068v-22.897h38.241
		C210.981,112.113,213.424,112.705,215.752,113.888L215.752,113.888L215.752,113.888z M210.085,121.101
		c0-1.411-0.535-2.538-1.603-3.378c-0.916-0.724-2.118-1.088-3.607-1.088h-24.386v17.289c0,1.412,0.572,2.538,1.717,3.377
		c0.992,0.727,2.233,1.088,3.721,1.088h24.158V121.101L210.085,121.101z M276.089,112.685v6.941
		c-0.306,2.064-1.565,3.804-3.778,5.219c2.824,1.491,4.37,3.422,4.637,5.792v12.274h-10.419v-11.032
		c0-1.302-0.515-2.375-1.545-3.217c-1.031-0.843-2.157-1.264-3.378-1.264H236.99v15.513h-10.705v-40.129l10.705-2.233v22.326h23.414
		c1.335,0,2.499-0.419,3.492-1.259c0.992-0.839,1.488-1.908,1.488-3.206v-5.726H276.089L276.089,112.685z M332.19,112.113v30.798
		h-38.126c-2.519,0-4.981-0.61-7.385-1.832c-2.977-1.525-4.599-3.549-4.866-6.068v-22.897h10.304v21.811
		c0,1.412,0.573,2.538,1.718,3.377c0.992,0.727,2.232,1.088,3.721,1.088h24.272v-26.275H332.19L332.19,112.113z M388.062,129.974
		v7.213c-0.992,3.816-4.351,5.725-10.075,5.725h-40.072v-5.095h35.149c2.595,0,4.083-0.82,4.465-2.461v-3.379
		c0-1.335-0.458-2.175-1.374-2.518c-0.496-0.191-1.622-0.287-3.377-0.287h-34.863v-9.159c0.344-2.556,2.022-4.58,5.038-6.067
		c2.441-1.222,4.941-1.832,7.499-1.832h37.782l-2.003,4.521h-32.344c-1.451,0-2.691,0.382-3.722,1.146
		c-1.184,0.84-1.774,1.966-1.774,3.378v3.492h32.172C385.562,124.65,388.062,126.425,388.062,129.974L388.062,129.974
		L388.062,129.974z M393.786,142.911v-40.129l10.763-2.233v11.564h27.478c2.557,0,5.038,0.592,7.442,1.774
		c3.015,1.488,4.655,3.492,4.923,6.011v23.013h-10.418v-21.811c0-1.374-0.564-2.462-1.689-3.263
		c-1.126-0.802-2.396-1.203-3.807-1.203h-23.929v26.276H393.786L393.786,142.911z M450.116,142.911v-29.796l10.762-2.29v32.086
		H450.116L450.116,142.911z M450.116,109.193v-6.813l10.762-2.29v6.813L450.116,109.193L450.116,109.193z M512.284,113.888
		c3.015,1.488,4.675,3.492,4.981,6.011v23.013h-10.477v-21.811c0-1.449-0.544-2.557-1.632-3.32
		c-1.087-0.764-2.375-1.146-3.864-1.146H477.25v26.276h-10.647v-30.798h38.24C507.399,112.113,509.881,112.705,512.284,113.888
		L512.284,113.888L512.284,113.888z"/>
	<path fill="#E31937" d="M119.726,165.865c2.131,0,3.197,0.946,3.197,2.842c0,0.869-0.278,1.816-0.829,2.841l-29.598,51.146
		c-0.87,1.58-2.191,2.921-3.967,4.025c-1.775,1.106-3.414,1.657-4.913,1.657H4.055c-2.211,0-3.315-0.947-3.315-2.841
		c0-0.868,0.275-1.815,0.829-2.842l29.599-51.146c0.867-1.578,2.19-2.919,3.966-4.024s3.452-1.658,5.031-1.658h28.415
		c2.131,0,3.197,0.949,3.197,2.845c0,0.87-0.274,1.819-0.818,2.845L44.675,217.02c-0.561,1.024-0.84,1.972-0.84,2.838
		c0,1.892,1.065,2.837,3.196,2.837c1.578,0,3.256-0.551,5.032-1.657c1.776-1.104,3.097-2.446,3.966-4.026l26.284-45.463
		c0.867-1.578,2.19-2.919,3.966-4.024s3.452-1.658,5.032-1.658H119.726L119.726,165.865z M216.689,165.865
		c2.209,0,3.315,0.946,3.315,2.842c0,0.869-0.316,1.816-0.947,2.841l-29.48,51.146c-0.947,1.58-2.29,2.921-4.025,4.025
		c-1.738,1.106-3.395,1.657-4.973,1.657h-39.78c-1.577,0-3.232,0.554-4.966,1.66c-1.733,1.106-3.072,2.449-4.018,4.031
		l-18.839,32.669c-1.184,2.051-2.409,3.078-3.67,3.078c-0.79,0-1.382-0.396-1.776-1.185l-15.747-26.638
		c-0.473-0.87-0.71-1.974-0.71-3.316c0-1.973,0.474-3.749,1.421-5.326l35.636-61.803c0.948-1.578,2.289-2.919,4.026-4.024
		c1.735-1.105,3.393-1.658,4.972-1.658l0,0H216.689L216.689,165.865z M175.943,177.222c0.644-1.024,0.966-1.97,0.966-2.838
		c0-1.891-1.106-2.836-3.315-2.836c-1.58,0-3.238,0.553-4.975,1.658c-1.737,1.105-3.078,2.447-4.025,4.025l-22.948,39.792
		c-0.566,1.023-0.847,1.97-0.847,2.835c0,1.891,1.104,2.836,3.315,2.836c1.579,0,3.237-0.551,4.974-1.655s3.039-2.446,3.909-4.025
		l0,0L175.943,177.222L175.943,177.222z M313.535,165.865c2.208,0,3.315,0.946,3.315,2.842c0,0.869-0.317,1.816-0.947,2.841
		l-29.481,51.146c-0.947,1.58-2.29,2.921-4.025,4.025c-1.737,1.106-3.395,1.657-4.973,1.657h-39.78c-1.576,0-3.232,0.554-4.965,1.66
		s-3.073,2.449-4.018,4.031l-18.84,32.669c-1.183,2.051-2.408,3.078-3.67,3.078c-0.79,0-1.382-0.396-1.776-1.185l-15.746-26.638
		c-0.474-0.87-0.71-1.974-0.71-3.316c0-1.973,0.473-3.749,1.42-5.326l35.637-61.803c0.947-1.578,2.288-2.919,4.025-4.024
		c1.736-1.105,3.393-1.658,4.973-1.658l0,0H313.535L313.535,165.865z M272.79,177.222c0.643-1.024,0.965-1.97,0.965-2.838
		c0-1.891-1.106-2.836-3.315-2.836c-1.58,0-3.237,0.553-4.974,1.658s-3.078,2.447-4.026,4.025l-22.948,39.792
		c-0.566,1.023-0.847,1.97-0.847,2.835c0,1.891,1.104,2.836,3.315,2.836c1.58,0,3.237-0.551,4.975-1.655
		c1.737-1.104,3.039-2.446,3.908-4.025l0,0L272.79,177.222L272.79,177.222z M371.073,188.597c-2.21,0-3.314-0.946-3.314-2.842
		c0-0.867,0.275-1.813,0.828-2.841l3.315-5.683c0.551-1.025,0.829-1.973,0.829-2.842c0-1.895-1.067-2.842-3.199-2.842
		c-1.579,0-3.239,0.553-4.976,1.656c-1.739,1.104-3.08,2.445-4.027,4.021l-6.601,11.316c-0.568,1.036-0.852,1.993-0.852,2.87
		c0,1.912,1.105,2.869,3.316,2.869h39.78c2.209,0,3.314,0.947,3.314,2.841c0,0.87-0.316,1.817-0.947,2.842l-13.142,22.731
		c-0.869,1.58-2.19,2.921-3.966,4.025c-1.776,1.106-3.415,1.657-4.913,1.657h-79.561c-2.211,0-3.315-0.947-3.315-2.841
		c0-0.868,0.275-1.815,0.828-2.842l6.63-11.366c0.868-1.577,2.191-2.919,3.967-4.025c1.776-1.104,3.452-1.656,5.031-1.656h28.415
		c2.131,0,3.196,0.946,3.196,2.841c0,0.869-0.277,1.817-0.828,2.841l-3.315,5.683c-0.553,1.027-0.829,1.975-0.829,2.843
		c0,1.894,1.066,2.841,3.199,2.841c1.579,0,3.257-0.551,5.035-1.655c1.775-1.103,3.099-2.443,3.968-4.021l6.63-11.366
		c0.548-1.027,0.822-1.977,0.822-2.845c0-1.895-1.107-2.844-3.316-2.844h-39.78c-2.131,0-3.197-0.947-3.197-2.842
		c0-0.867,0.276-1.814,0.829-2.841l13.142-22.732c0.868-1.578,2.19-2.919,3.966-4.024c1.776-1.105,3.452-1.658,5.032-1.658h79.562
		c2.131,0,3.195,0.946,3.195,2.842c0,0.869-0.276,1.816-0.828,2.841l-6.63,11.366c-0.87,1.58-2.19,2.921-3.967,4.025
		c-1.776,1.106-3.415,1.657-4.913,1.657H371.073L371.073,188.597z M510.305,165.865c2.132,0,3.196,0.946,3.196,2.842
		c0,0.869-0.276,1.816-0.828,2.841l-29.599,51.146c-0.87,1.58-2.189,2.921-3.966,4.025c-1.776,1.106-3.415,1.657-4.914,1.657
		h-79.561c-2.21,0-3.315-0.947-3.315-2.841c0-0.868,0.276-1.815,0.829-2.842l13.142-22.731c0.947-1.578,2.288-2.92,4.025-4.025
		c1.736-1.104,3.393-1.657,4.973-1.657h39.78c1.588,0,3.252-0.55,4.999-1.652c1.744-1.103,3.093-2.439,4.047-4.015l6.545-11.334
		c0.498-1.034,0.748-1.989,0.748-2.865c0-1.91-1.066-2.866-3.197-2.866c-1.564,0-3.206,0.56-4.924,1.672
		c-1.721,1.116-3.049,2.471-3.986,4.062l-3.301,5.691c-0.872,1.563-2.197,2.893-3.978,3.985c-1.779,1.093-3.422,1.639-4.924,1.639
		h-28.487c-2.216,0-3.322-0.946-3.322-2.842c0-0.867,0.275-1.813,0.829-2.841l6.63-11.366c0.867-1.578,2.19-2.919,3.966-4.024
		c1.776-1.105,3.452-1.658,5.032-1.658l0,0H510.305L510.305,165.865z M453.217,205.633c0.565-1.022,0.851-1.969,0.851-2.836
		c0-1.889-1.106-2.834-3.315-2.834c-1.58,0-3.236,0.554-4.972,1.657c-1.737,1.106-3.04,2.448-3.907,4.026l-6.63,11.364
		c-0.554,1.027-0.829,1.975-0.829,2.843c0,1.894,1.065,2.841,3.196,2.841c1.58,0,3.258-0.551,5.036-1.655
		c1.775-1.103,3.1-2.443,3.97-4.021l0,0L453.217,205.633L453.217,205.633z M566.068,152.25c0.473,0.79,0.71,1.855,0.71,3.196
		c0,1.974-0.474,3.789-1.421,5.446l-35.755,61.802c-0.869,1.58-2.19,2.921-3.966,4.025c-1.776,1.106-3.415,1.657-4.913,1.657
		h-28.415c-2.21,0-3.315-0.947-3.315-2.841c0-0.868,0.276-1.815,0.829-2.842l36.11-62.513l18.942-32.677
		c1.185-2.051,2.407-3.078,3.67-3.078c0.711,0,1.304,0.355,1.776,1.066L566.068,152.25L566.068,152.25z M654.508,165.865
		c2.131,0,3.196,0.946,3.196,2.842c0,0.869-0.277,1.816-0.829,2.841l-29.599,51.146c-0.869,1.58-2.19,2.921-3.966,4.025
		c-1.776,1.106-3.415,1.657-4.913,1.657h-79.562c-2.211,0-3.314-0.947-3.314-2.841c0-0.868,0.275-1.815,0.829-2.842l13.141-22.731
		c0.947-1.578,2.289-2.92,4.026-4.025c1.734-1.104,3.393-1.657,4.972-1.657h39.781c1.587,0,3.252-0.55,4.998-1.652
		c1.745-1.103,3.093-2.439,4.048-4.015l6.545-11.334c0.497-1.034,0.747-1.989,0.747-2.865c0-1.91-1.065-2.866-3.197-2.866
		c-1.564,0-3.205,0.56-4.924,1.672c-1.72,1.116-3.049,2.471-3.987,4.062l-3.3,5.691c-0.871,1.563-2.197,2.893-3.977,3.985
		c-1.78,1.093-3.422,1.639-4.925,1.639h-28.486c-2.216,0-3.323-0.946-3.323-2.842c0-0.867,0.276-1.813,0.829-2.841l6.63-11.366
		c0.868-1.578,2.19-2.919,3.966-4.024c1.776-1.105,3.452-1.658,5.032-1.658l0,0H654.508L654.508,165.865z M597.419,205.633
		c0.566-1.022,0.852-1.969,0.852-2.836c0-1.889-1.107-2.834-3.315-2.834c-1.58,0-3.237,0.554-4.973,1.657
		c-1.737,1.106-3.039,2.448-3.907,4.026l-6.63,11.364c-0.553,1.027-0.829,1.975-0.829,2.843c0,1.894,1.066,2.841,3.197,2.841
		c1.58,0,3.258-0.551,5.035-1.655c1.775-1.103,3.101-2.443,3.97-4.021l0,0L597.419,205.633L597.419,205.633z"/>
	<path fill="none" stroke="#000000" stroke-width="1.4799" d="M119.726,165.865c2.131,0,3.197,0.946,3.197,2.842
		c0,0.869-0.278,1.816-0.829,2.841l-29.598,51.146c-0.87,1.58-2.191,2.921-3.967,4.025c-1.775,1.106-3.414,1.657-4.913,1.657H4.055
		c-2.211,0-3.315-0.947-3.315-2.841c0-0.868,0.275-1.815,0.829-2.842l29.599-51.146c0.867-1.578,2.19-2.919,3.966-4.024
		s3.452-1.658,5.031-1.658h28.415c2.131,0,3.197,0.949,3.197,2.845c0,0.87-0.274,1.819-0.818,2.845L44.675,217.02
		c-0.561,1.024-0.84,1.972-0.84,2.838c0,1.892,1.065,2.837,3.196,2.837c1.578,0,3.256-0.551,5.032-1.657
		c1.776-1.104,3.097-2.446,3.966-4.026l26.284-45.463c0.867-1.578,2.19-2.919,3.966-4.024s3.452-1.658,5.032-1.658H119.726
		L119.726,165.865z M216.689,165.865c2.209,0,3.315,0.946,3.315,2.842c0,0.869-0.316,1.816-0.947,2.841l-29.48,51.146
		c-0.947,1.58-2.29,2.921-4.025,4.025c-1.738,1.106-3.395,1.657-4.973,1.657h-39.78c-1.577,0-3.232,0.554-4.966,1.66
		c-1.733,1.106-3.072,2.449-4.018,4.031l-18.839,32.669c-1.184,2.051-2.409,3.078-3.67,3.078c-0.79,0-1.382-0.396-1.776-1.185
		l-15.747-26.638c-0.473-0.87-0.71-1.974-0.71-3.316c0-1.973,0.474-3.749,1.421-5.326l35.636-61.803
		c0.948-1.578,2.289-2.919,4.026-4.024c1.735-1.105,3.393-1.658,4.972-1.658l0,0H216.689L216.689,165.865z M175.943,177.222
		c0.644-1.024,0.966-1.97,0.966-2.838c0-1.891-1.106-2.836-3.315-2.836c-1.58,0-3.238,0.553-4.975,1.658
		c-1.737,1.105-3.078,2.447-4.025,4.025l-22.948,39.792c-0.566,1.023-0.847,1.97-0.847,2.835c0,1.891,1.104,2.836,3.315,2.836
		c1.579,0,3.237-0.551,4.974-1.655s3.039-2.446,3.909-4.025l0,0L175.943,177.222L175.943,177.222z M313.535,165.865
		c2.208,0,3.315,0.946,3.315,2.842c0,0.869-0.317,1.816-0.947,2.841l-29.481,51.146c-0.947,1.58-2.29,2.921-4.025,4.025
		c-1.737,1.106-3.395,1.657-4.973,1.657h-39.78c-1.576,0-3.232,0.554-4.965,1.66s-3.073,2.449-4.018,4.031l-18.84,32.669
		c-1.183,2.051-2.408,3.078-3.67,3.078c-0.79,0-1.382-0.396-1.776-1.185l-15.746-26.638c-0.474-0.87-0.71-1.974-0.71-3.316
		c0-1.973,0.473-3.749,1.42-5.326l35.637-61.803c0.947-1.578,2.288-2.919,4.025-4.024c1.736-1.105,3.393-1.658,4.973-1.658l0,0
		H313.535L313.535,165.865z M272.79,177.222c0.643-1.024,0.965-1.97,0.965-2.838c0-1.891-1.106-2.836-3.315-2.836
		c-1.58,0-3.237,0.553-4.974,1.658s-3.078,2.447-4.026,4.025l-22.948,39.792c-0.566,1.023-0.847,1.97-0.847,2.835
		c0,1.891,1.104,2.836,3.315,2.836c1.58,0,3.237-0.551,4.975-1.655c1.737-1.104,3.039-2.446,3.908-4.025l0,0L272.79,177.222
		L272.79,177.222z M371.073,188.597c-2.21,0-3.314-0.946-3.314-2.842c0-0.867,0.275-1.813,0.828-2.841l3.315-5.683
		c0.551-1.025,0.829-1.973,0.829-2.842c0-1.895-1.067-2.842-3.199-2.842c-1.579,0-3.239,0.553-4.976,1.656
		c-1.739,1.104-3.08,2.445-4.027,4.021l-6.601,11.316c-0.568,1.036-0.852,1.993-0.852,2.87c0,1.912,1.105,2.869,3.316,2.869h39.78
		c2.209,0,3.314,0.947,3.314,2.841c0,0.87-0.316,1.817-0.947,2.842l-13.142,22.731c-0.869,1.58-2.19,2.921-3.966,4.025
		c-1.776,1.106-3.415,1.657-4.913,1.657h-79.561c-2.211,0-3.315-0.947-3.315-2.841c0-0.868,0.275-1.815,0.828-2.842l6.63-11.366
		c0.868-1.577,2.191-2.919,3.967-4.025c1.776-1.104,3.452-1.656,5.031-1.656h28.415c2.131,0,3.196,0.946,3.196,2.841
		c0,0.869-0.277,1.817-0.828,2.841l-3.315,5.683c-0.553,1.027-0.829,1.975-0.829,2.843c0,1.894,1.066,2.841,3.199,2.841
		c1.579,0,3.257-0.551,5.035-1.655c1.775-1.103,3.099-2.443,3.968-4.021l6.63-11.366c0.548-1.027,0.822-1.977,0.822-2.845
		c0-1.895-1.107-2.844-3.316-2.844h-39.78c-2.131,0-3.197-0.947-3.197-2.842c0-0.867,0.276-1.814,0.829-2.841l13.142-22.732
		c0.868-1.578,2.19-2.919,3.966-4.024c1.776-1.105,3.452-1.658,5.032-1.658h79.562c2.131,0,3.195,0.946,3.195,2.842
		c0,0.869-0.276,1.816-0.828,2.841l-6.63,11.366c-0.87,1.58-2.19,2.921-3.967,4.025c-1.776,1.106-3.415,1.657-4.913,1.657H371.073
		L371.073,188.597z M510.305,165.865c2.132,0,3.196,0.946,3.196,2.842c0,0.869-0.276,1.816-0.828,2.841l-29.599,51.146
		c-0.87,1.58-2.189,2.921-3.966,4.025c-1.776,1.106-3.415,1.657-4.914,1.657h-79.561c-2.21,0-3.315-0.947-3.315-2.841
		c0-0.868,0.276-1.815,0.829-2.842l13.142-22.731c0.947-1.578,2.288-2.92,4.025-4.025c1.736-1.104,3.393-1.657,4.973-1.657h39.78
		c1.588,0,3.252-0.55,4.999-1.652c1.744-1.103,3.093-2.439,4.047-4.015l6.545-11.334c0.498-1.034,0.748-1.989,0.748-2.865
		c0-1.91-1.066-2.866-3.197-2.866c-1.564,0-3.206,0.56-4.924,1.672c-1.721,1.116-3.049,2.471-3.986,4.062l-3.301,5.691
		c-0.872,1.563-2.197,2.893-3.978,3.985c-1.779,1.093-3.422,1.639-4.924,1.639h-28.487c-2.216,0-3.322-0.946-3.322-2.842
		c0-0.867,0.275-1.813,0.829-2.841l6.63-11.366c0.867-1.578,2.19-2.919,3.966-4.024c1.776-1.105,3.452-1.658,5.032-1.658l0,0
		H510.305L510.305,165.865z M453.217,205.633c0.565-1.022,0.851-1.969,0.851-2.836c0-1.889-1.106-2.834-3.315-2.834
		c-1.58,0-3.236,0.554-4.972,1.657c-1.737,1.106-3.04,2.448-3.907,4.026l-6.63,11.364c-0.554,1.027-0.829,1.975-0.829,2.843
		c0,1.894,1.065,2.841,3.196,2.841c1.58,0,3.258-0.551,5.036-1.655c1.775-1.103,3.1-2.443,3.97-4.021l0,0L453.217,205.633
		L453.217,205.633z M566.068,152.25c0.473,0.79,0.71,1.855,0.71,3.196c0,1.974-0.474,3.789-1.421,5.446l-35.755,61.802
		c-0.869,1.58-2.19,2.921-3.966,4.025c-1.776,1.106-3.415,1.657-4.913,1.657h-28.415c-2.21,0-3.315-0.947-3.315-2.841
		c0-0.868,0.276-1.815,0.829-2.842l36.11-62.513l18.942-32.677c1.185-2.051,2.407-3.078,3.67-3.078c0.711,0,1.304,0.355,1.776,1.066
		L566.068,152.25L566.068,152.25z M654.508,165.865c2.131,0,3.196,0.946,3.196,2.842c0,0.869-0.277,1.816-0.829,2.841
		l-29.599,51.146c-0.869,1.58-2.19,2.921-3.966,4.025c-1.776,1.106-3.415,1.657-4.913,1.657h-79.562
		c-2.211,0-3.314-0.947-3.314-2.841c0-0.868,0.275-1.815,0.829-2.842l13.141-22.731c0.947-1.578,2.289-2.92,4.026-4.025
		c1.734-1.104,3.393-1.657,4.972-1.657h39.781c1.587,0,3.252-0.55,4.998-1.652c1.745-1.103,3.093-2.439,4.048-4.015l6.545-11.334
		c0.497-1.034,0.747-1.989,0.747-2.865c0-1.91-1.065-2.866-3.197-2.866c-1.564,0-3.205,0.56-4.924,1.672
		c-1.72,1.116-3.049,2.471-3.987,4.062l-3.3,5.691c-0.871,1.563-2.197,2.893-3.977,3.985c-1.78,1.093-3.422,1.639-4.925,1.639
		h-28.486c-2.216,0-3.323-0.946-3.323-2.842c0-0.867,0.276-1.813,0.829-2.841l6.63-11.366c0.868-1.578,2.19-2.919,3.966-4.024
		c1.776-1.105,3.452-1.658,5.032-1.658l0,0H654.508L654.508,165.865z M597.419,205.633c0.566-1.022,0.852-1.969,0.852-2.836
		c0-1.889-1.107-2.834-3.315-2.834c-1.58,0-3.237,0.554-4.973,1.657c-1.737,1.106-3.039,2.448-3.907,4.026l-6.63,11.364
		c-0.553,1.027-0.829,1.975-0.829,2.843c0,1.894,1.066,2.841,3.197,2.841c1.58,0,3.258-0.551,5.035-1.655
		c1.775-1.103,3.101-2.443,3.97-4.021l0,0L597.419,205.633L597.419,205.633z"/>
	<path d="M285.918,267.963v7.235c-0.996,3.828-4.364,5.742-10.107,5.742h-40.195v-5.11h35.257c2.603,0,4.096-0.823,4.479-2.47
		v-3.387c0-1.341-0.459-2.183-1.378-2.527c-0.498-0.191-1.628-0.287-3.388-0.287h-34.97v-9.188c0.344-2.563,2.029-4.593,5.053-6.086
		c2.449-1.225,4.957-1.838,7.522-1.838h37.899l-2.01,4.536h-32.443c-1.456,0-2.699,0.384-3.733,1.149
		c-1.187,0.842-1.78,1.972-1.78,3.388v3.503h32.271C283.41,262.623,285.918,264.403,285.918,267.963L285.918,267.963
		L285.918,267.963z M296.599,279.104c-3.024-1.493-4.671-3.483-4.938-5.973V249.99h10.451v21.877c0,1.417,0.574,2.547,1.722,3.388
		c1.034,0.729,2.297,1.091,3.79,1.091h11.944V249.99h10.68v26.355h17.457V249.99h10.623v30.893H304.12
		C301.518,280.883,299.01,280.29,296.599,279.104L296.599,279.104L296.599,279.104z M373.83,273.418
		c0.382,1.417,1.818,2.239,4.308,2.469h35.945l0.058,4.996l-41.057,0.058c-4.785,0-7.791-1.454-9.016-4.364v-18.892
		c0.306-2.488,1.838-4.459,4.594-5.914c2.183-1.149,4.556-1.724,7.12-1.724h37.038v14.356c0,1.57-0.479,2.909-1.436,4.019
		c-1.111,0.996-2.757,1.493-4.938,1.493H373.83V273.418L373.83,273.418z M375.554,255.732c-1.149,0.842-1.724,1.952-1.724,3.33
		v6.316h25.095c1.837,0,3.138-0.268,3.903-0.804c0.689-0.842,1.034-1.799,1.034-2.871v-7.121h-24.577
		C377.83,254.583,376.586,254.967,375.554,255.732L375.554,255.732L375.554,255.732z M468.576,280.94h-40.827
		c-4.9,0-7.963-1.454-9.188-4.364v-18.72c0.306-2.564,1.856-4.574,4.65-6.029c2.26-1.186,4.652-1.78,7.179-1.78h27.447v-9.302
		l10.738-2.297V280.94L468.576,280.94z M457.838,275.887v-21.304h-23.944c-1.455,0-2.699,0.384-3.732,1.149
		c-1.148,0.842-1.723,1.952-1.723,3.33v14.355c0.344,1.646,1.78,2.469,4.307,2.469H457.838L457.838,275.887z M484.079,273.418
		c0.383,1.417,1.818,2.239,4.308,2.469h35.945l0.059,4.996l-41.058,0.058c-4.785,0-7.791-1.454-9.015-4.364v-18.892
		c0.306-2.488,1.837-4.459,4.594-5.914c2.183-1.149,4.556-1.724,7.12-1.724h37.037v14.356c0,1.57-0.479,2.909-1.435,4.019
		c-1.111,0.996-2.758,1.493-4.939,1.493h-32.616V273.418L484.079,273.418z M485.803,255.732c-1.148,0.842-1.724,1.952-1.724,3.33
		v6.316h25.095c1.837,0,3.138-0.268,3.904-0.804c0.689-0.842,1.033-1.799,1.033-2.871v-7.121h-24.576
		C488.079,254.583,486.836,254.967,485.803,255.732L485.803,255.732L485.803,255.732z M574.635,251.827
		c3.022,1.493,4.688,3.503,4.994,6.029v23.084h-10.508v-21.878c0-1.454-0.545-2.564-1.636-3.33s-2.383-1.149-3.876-1.149h-24.118
		v26.357h-10.68v-30.894h38.357C569.733,250.047,572.223,250.642,574.635,251.827L574.635,251.827L574.635,251.827z"/>
	<path fill="#E31937" d="M327.925,2.326c0.18-0.708,1.008-0.68,1.178,0c6.858,27.375,34.204,27.941,35.561,27.941
		c1.357,0,0.522,7.724,0.522,7.724s-24.453,1.879-24.453,0.939s-1.535-11.585-12.077-11.585c-11.368,0-12.316,11.167-12.316,12.286
		c0,1.118-25.079,1.207-24.989,0.357c0.089-0.85-0.537-10.467,0.671-10.288C293.229,29.88,320.874,30.163,327.925,2.326
		L327.925,2.326z"/>
	<path fill="none" stroke="#E31937" stroke-width="0.2209" d="M327.925,2.326c0.18-0.708,1.008-0.68,1.178,0
		c6.858,27.375,34.204,27.941,35.561,27.941c1.357,0,0.522,7.724,0.522,7.724s-24.453,1.879-24.453,0.939
		s-1.535-11.585-12.077-11.585c-11.368,0-12.316,11.167-12.316,12.286c0,1.118-25.079,1.207-24.989,0.357
		c0.089-0.85-0.537-10.467,0.671-10.288C293.229,29.88,320.874,30.163,327.925,2.326L327.925,2.326z"/>
	<path fill="#E31937" d="M329.155,76.395c-0.18,0.708-1.008,0.681-1.178,0c-6.859-27.375-34.204-27.941-35.561-27.941
		s-0.522-7.724-0.522-7.724s24.453-1.878,24.453-0.938c0,0.938,1.536,11.585,12.077,11.585c11.368,0,12.316-11.168,12.316-12.286
		s25.079-1.208,24.99-0.357c-0.09,0.85,0.536,10.467-0.671,10.287C363.852,48.841,336.207,48.558,329.155,76.395L329.155,76.395z"/>
	<path fill="none" stroke="#E31937" stroke-width="0.2209" d="M329.155,76.395c-0.18,0.708-1.008,0.681-1.178,0
		c-6.859-27.375-34.204-27.941-35.561-27.941s-0.522-7.724-0.522-7.724s24.453-1.878,24.453-0.938
		c0,0.938,1.536,11.585,12.077,11.585c11.368,0,12.316-11.168,12.316-12.286s25.079-1.208,24.99-0.357
		c-0.09,0.85,0.536,10.467-0.671,10.287C363.852,48.841,336.207,48.558,329.155,76.395L329.155,76.395z"/>
	<path fill="none" stroke="#E31937" stroke-width="3.5347" d="M328.686,77.195c20.828,0,37.713-16.886,37.713-37.714
		c0-20.829-16.885-37.714-37.713-37.714c-20.829,0-37.714,16.885-37.714,37.714C290.971,60.31,307.856,77.195,328.686,77.195
		L328.686,77.195z"/>
	<path fill="none" stroke="#E31937" stroke-width="0.9323" d="M328.485,51.733c6.808,0,12.326-5.519,12.326-12.326
		s-5.519-12.326-12.326-12.326c-6.807,0-12.326,5.519-12.326,12.326S321.678,51.733,328.485,51.733L328.485,51.733z"/>
	<path fill="#E31937" d="M294.527,43.204c2.043,0,3.699-1.072,3.699-2.395c0-1.323-1.656-2.395-3.699-2.395s-3.7,1.071-3.7,2.395
		C290.827,42.132,292.484,43.204,294.527,43.204L294.527,43.204z"/>
	<path fill="#E31937" d="M363.04,40.641c2.043,0,3.699-1.072,3.699-2.395s-1.656-2.395-3.699-2.395s-3.698,1.072-3.698,2.395
		S360.997,40.641,363.04,40.641L363.04,40.641z"/>
</g>
</svg>
