<?xml version="1.0" encoding="UTF-8" standalone="no"?>
<!-- Generator: Adobe Illustrator 15.0.2, SVG Export Plug-In . SVG Version: 6.00 Build 0)  -->

<svg
   xmlns:dc="http://purl.org/dc/elements/1.1/"
   xmlns:cc="http://creativecommons.org/ns#"
   xmlns:rdf="http://www.w3.org/1999/02/22-rdf-syntax-ns#"
   xmlns:svg="http://www.w3.org/2000/svg"
   xmlns="http://www.w3.org/2000/svg"
   xmlns:sodipodi="http://sodipodi.sourceforge.net/DTD/sodipodi-0.dtd"
   xmlns:inkscape="http://www.inkscape.org/namespaces/inkscape"
   version="1.1"
   id="Layer_1"
   x="0px"
   y="0px"
   width="78.961693"
   height="78.962692"
   viewBox="0 0 78.961696 78.962692"
   enable-background="new 0 0 658.444 280.94"
   xml:space="preserve"
   inkscape:version="0.48.4 r9939"
   sodipodi:docname="ukklogo.svg"><metadata
     id="metadata3087"><rdf:RDF><cc:Work
         rdf:about=""><dc:format>image/svg+xml</dc:format><dc:type
           rdf:resource="http://purl.org/dc/dcmitype/StillImage" /><dc:title></dc:title></cc:Work></rdf:RDF></metadata><defs
     id="defs3085" /><sodipodi:namedview
     pagecolor="#ffffff"
     bordercolor="#666666"
     borderopacity="1"
     objecttolerance="10"
     gridtolerance="10"
     guidetolerance="10"
     inkscape:pageopacity="0"
     inkscape:pageshadow="2"
     inkscape:window-width="2560"
     inkscape:window-height="1416"
     id="namedview3083"
     showgrid="false"
     fit-margin-top="0"
     fit-margin-left="0"
     fit-margin-right="0"
     fit-margin-bottom="0"
     inkscape:zoom="2.1307812"
     inkscape:cx="4.0031185"
     inkscape:cy="27.31497"
     inkscape:window-x="0"
     inkscape:window-y="24"
     inkscape:window-maximized="1"
     inkscape:current-layer="g3057" /><g
     id="g3057"
     transform="translate(-266.6777,-89.63815)"><path
       d="m 305.39805,91.964492 c 0.18,-0.708 1.008,-0.68 1.178,0 6.858,27.374998 34.204,27.940998 35.561,27.940998 1.357,0 0.522,7.724 0.522,7.724 0,0 -24.453,1.879 -24.453,0.939 0,-0.94 -1.535,-11.585 -12.077,-11.585 -11.368,0 -12.316,11.167 -12.316,12.286 0,1.118 -25.079,1.207 -24.989,0.357 0.089,-0.85 -0.537,-10.467 0.671,-10.288 1.207,0.18 28.852,0.463 35.903,-27.373998 l 0,0 z"
       id="path3067"
       inkscape:connector-curvature="0"
       style="fill:#e31937" /><path
       d="m 305.39805,91.964492 c 0.18,-0.708 1.008,-0.68 1.178,0 6.858,27.374998 34.204,27.940998 35.561,27.940998 1.357,0 0.522,7.724 0.522,7.724 0,0 -24.453,1.879 -24.453,0.939 0,-0.94 -1.535,-11.585 -12.077,-11.585 -11.368,0 -12.316,11.167 -12.316,12.286 0,1.118 -25.079,1.207 -24.989,0.357 0.089,-0.85 -0.537,-10.467 0.671,-10.288 1.207,0.18 28.852,0.463 35.903,-27.373998 l 0,0 z"
       id="path3069"
       inkscape:connector-curvature="0"
       style="fill:none;stroke:#e31937;stroke-width:0.2209" /><path
       d="m 306.62805,166.03349 c -0.18,0.708 -1.008,0.681 -1.178,0 -6.859,-27.375 -34.204,-27.941 -35.561,-27.941 -1.357,0 -0.522,-7.724 -0.522,-7.724 0,0 24.453,-1.878 24.453,-0.938 0,0.938 1.536,11.585 12.077,11.585 11.368,0 12.316,-11.168 12.316,-12.286 0,-1.118 25.079,-1.208 24.99,-0.357 -0.09,0.85 0.536,10.467 -0.671,10.287 -1.207,-0.18 -28.852,-0.463 -35.904,27.374 l 0,0 z"
       id="path3071"
       inkscape:connector-curvature="0"
       style="fill:#e31937" /><path
       d="m 306.62805,166.03349 c -0.18,0.708 -1.008,0.681 -1.178,0 -6.859,-27.375 -34.204,-27.941 -35.561,-27.941 -1.357,0 -0.522,-7.724 -0.522,-7.724 0,0 24.453,-1.878 24.453,-0.938 0,0.938 1.536,11.585 12.077,11.585 11.368,0 12.316,-11.168 12.316,-12.286 0,-1.118 25.079,-1.208 24.99,-0.357 -0.09,0.85 0.536,10.467 -0.671,10.287 -1.207,-0.18 -28.852,-0.463 -35.904,27.374 l 0,0 z"
       id="path3073"
       inkscape:connector-curvature="0"
       style="fill:none;stroke:#e31937;stroke-width:0.2209" /><path
       d="m 306.15905,166.83349 c 20.828,0 37.713,-16.886 37.713,-37.714 0,-20.829 -16.885,-37.713998 -37.713,-37.713998 -20.829,0 -37.714,16.884998 -37.714,37.713998 -10e-4,20.829 16.884,37.714 37.714,37.714 l 0,0 z"
       id="path3075"
       inkscape:connector-curvature="0"
       style="fill:none;stroke:#e31937;stroke-width:3.53469992" /><path
       d="m 305.95805,141.37149 c 6.808,0 12.326,-5.519 12.326,-12.326 0,-6.807 -5.519,-12.326 -12.326,-12.326 -6.807,0 -12.326,5.519 -12.326,12.326 0,6.807 5.519,12.326 12.326,12.326 l 0,0 z"
       id="path3077"
       inkscape:connector-curvature="0"
       style="fill:none;stroke:#e31937;stroke-width:0.93229997" /><path
       d="m 272.00005,132.84249 c 2.043,0 3.699,-1.072 3.699,-2.395 0,-1.323 -1.656,-2.395 -3.699,-2.395 -2.043,0 -3.7,1.071 -3.7,2.395 0,1.323 1.657,2.395 3.7,2.395 l 0,0 z"
       id="path3079"
       inkscape:connector-curvature="0"
       style="fill:#e31937" /><path
       d="m 340.51305,130.27949 c 2.043,0 3.699,-1.072 3.699,-2.395 0,-1.323 -1.656,-2.395 -3.699,-2.395 -2.043,0 -3.698,1.072 -3.698,2.395 0,1.323 1.655,2.395 3.698,2.395 l 0,0 z"
       id="path3081"
       inkscape:connector-curvature="0"
       style="fill:#e31937" /></g></svg>