<?xml version="1.0" encoding="utf-8"?>
<!-- Generator: Adobe Illustrator 15.0.2, SVG Export Plug-In . SVG Version: 6.00 Build 0)  -->
<!DOCTYPE svg PUBLIC "-//W3C//DTD SVG 1.1//EN" "http://www.w3.org/Graphics/SVG/1.1/DTD/svg11.dtd">
<svg version="1.1" id="Layer_1" xmlns="http://www.w3.org/2000/svg" xmlns:xlink="http://www.w3.org/1999/xlink" x="0px" y="0px"
	 width="9.938px" height="40.254px" viewBox="0 0 9.938 40.254" enable-background="new 0 0 9.938 40.254" xml:space="preserve">
<g>
	<path d="M0,5.306C0,2.189,2.105,0,4.969,0c3.032,0,4.969,2.189,4.969,5.306c0,2.947-1.937,5.221-5.053,5.221
		C2.021,10.527,0,8.253,0,5.306z M0,35.033c0-3.116,2.105-5.305,4.969-5.305c3.032,0,4.969,2.189,4.969,5.305
		c0,2.947-1.937,5.221-5.053,5.221C2.021,40.254,0,37.98,0,35.033z"/>
</g>
</svg>
